Initial Indicator Analysis
…
I noticed one probable typo/mistake and corrected. In the indicator data the code for “Tasa de Pobreza” is “S.E.3” whereas in the metadata it is specified as “S.E.4”. I altered the latter to “S.E.3” as I presume this is what it should be.

A suggestion here would be that for any new indicators that become available, we could directly add them to the iData table. We could potentially have an Excel sheet with reads the master indicator table and formats it for import to R.

We begin by importing the data set as it stands (the version at the time of writing is 30/01/2023).

library(readxl)

# note: if indicators are added the ranges here will need to be adjusted
idata <- read_excel("data_input/data_input_formatted.xlsx", sheet = "iData")
imeta <- read_excel("data_input/data_input_formatted.xlsx", sheet = "iMeta")

idata

# A tibble: 340 × 73
   Cód_dep Departa…¹ uCode uName A.A.1 A.D.1 A.M.1 A.M.2 A.M.3 A.M.4 A.M.5 A.M.6
     <dbl> <chr>     <dbl> <chr> <lgl> <dbl> <dbl> <dbl> <dbl> <dbl> <lgl> <lgl>
 1       1 Guatemala   101 Guat… NA      9.1   614 148.    143  852. NA    NA   
 2       1 Guatemala   102 Sant… NA      7.8    57  18.4    NA  741. NA    NA   
 3       1 Guatemala   103 San … NA      4.2    40  69.7    NA  696. NA    NA   
 4       1 Guatemala   104 San … NA      2.5     0 166.     NA 2626. NA    NA   
 5       1 Guatemala   105 Pale… NA      7      10 164.     NA 1363. NA    NA   
 6       1 Guatemala   106 Chin… NA      7.2    13  34.9    NA  831. NA    NA   
 7       1 Guatemala   107 San … NA      7.4     5  49.3    NA  913. NA    NA   
 8       1 Guatemala   108 Mixco NA      9.2   114  37.5    NA  861. NA    NA   
 9       1 Guatemala   109 San … NA      4.2     2  34.1    NA  579. NA    NA   
10       1 Guatemala   110 San … NA      2.6    19  59.7    NA  707. NA    NA   
# … with 330 more rows, 61 more variables: A.V.1 <dbl>, A.V.2 <dbl>,
#   A.V.3 <dbl>, A.V.5 <lgl>, S.A.1 <dbl>, S.A.2 <dbl>, S.A.3 <dbl>,
#   S.A.4 <dbl>, S.E.1 <dbl>, S.E.2 <dbl>, S.E.3 <dbl>, S.G.1 <dbl>,
#   S.G.2 <dbl>, S.G.3 <dbl>, S.G.4 <dbl>, S.G.5 <dbl>, S.G.6 <dbl>,
#   S.G.7 <dbl>, S.G.8 <dbl>, S.T.1 <dbl>, S.T.2 <dbl>, S.T.3 <lgl>,
#   S.T.4 <dbl>, C.C.1 <dbl>, C.C.2 <lgl>, C.C.3 <lgl>, C.C.4 <lgl>,
#   C.E.1 <lgl>, C.E.2 <lgl>, C.E.3 <lgl>, C.E.4 <dbl>, C.E.5 <dbl>, …
…
